{
  "data": {
    "articles": [
      {
        "id": "01HX9R8C8V2NP3QWKJ5ART001",
        "title": "Welcome to Powernode - Getting Started Guide",
        "slug": "welcome-to-powernode-getting-started-guide",
        "excerpt": "Complete guide to getting started with Powernode subscription management platform. Learn setup, configuration, and first steps.",
        "author_name": "System Administrator",
        "category": {
          "id": "01HX9R8C8V2NP3QWKJ5CAT001",
          "name": "Getting Started",
          "slug": "getting-started"
        },
        "status": "published",
        "is_public": true,
        "is_featured": true,
        "published_at": "2024-11-01T10:00:00Z",
        "reading_time": 8,
        "views_count": 2450,
        "likes_count": 128,
        "comments_count": 24,
        "tags": ["getting-started", "setup", "onboarding"],
        "created_at": "2024-11-01T10:00:00Z",
        "updated_at": "2024-12-15T14:00:00Z"
      },
      {
        "id": "01HX9R8C8V2NP3QWKJ5ART002",
        "title": "Complete Guide to Subscription Management",
        "slug": "complete-guide-subscription-management",
        "excerpt": "Master subscription lifecycle management with Powernode. Learn plan creation, billing cycles, upgrades, downgrades, and automated workflows.",
        "author_name": "System Administrator",
        "category": {
          "id": "01HX9R8C8V2NP3QWKJ5CAT003",
          "name": "Billing & Subscriptions",
          "slug": "billing-subscriptions"
        },
        "status": "published",
        "is_public": true,
        "is_featured": true,
        "published_at": "2024-11-05T14:00:00Z",
        "reading_time": 15,
        "views_count": 1890,
        "likes_count": 95,
        "comments_count": 18,
        "tags": ["subscriptions", "billing", "management"],
        "created_at": "2024-11-05T14:00:00Z",
        "updated_at": "2024-12-18T09:00:00Z"
      },
      {
        "id": "01HX9R8C8V2NP3QWKJ5ART003",
        "title": "API Integration Fundamentals for Powernode",
        "slug": "api-integration-fundamentals-powernode",
        "excerpt": "Complete developer guide to Powernode's RESTful API. Learn authentication, endpoints, webhooks, and integration best practices.",
        "author_name": "System Administrator",
        "category": {
          "id": "01HX9R8C8V2NP3QWKJ5CAT005",
          "name": "API Documentation",
          "slug": "api-documentation"
        },
        "status": "published",
        "is_public": true,
        "is_featured": true,
        "published_at": "2024-11-10T10:00:00Z",
        "reading_time": 20,
        "views_count": 3200,
        "likes_count": 156,
        "comments_count": 42,
        "tags": ["api", "integration", "developers", "webhooks"],
        "created_at": "2024-11-10T10:00:00Z",
        "updated_at": "2024-12-20T16:00:00Z"
      },
      {
        "id": "01HX9R8C8V2NP3QWKJ5ART004",
        "title": "Team Management and Permissions Guide",
        "slug": "team-management-permissions-guide",
        "excerpt": "Learn how to effectively manage team members, assign permissions, and configure role-based access control in Powernode.",
        "author_name": "System Administrator",
        "category": {
          "id": "01HX9R8C8V2NP3QWKJ5CAT002",
          "name": "Account Setup",
          "slug": "account-setup"
        },
        "status": "published",
        "is_public": true,
        "is_featured": false,
        "published_at": "2024-11-15T11:00:00Z",
        "reading_time": 12,
        "views_count": 1245,
        "likes_count": 67,
        "comments_count": 11,
        "tags": ["team", "permissions", "access-control"],
        "created_at": "2024-11-15T11:00:00Z",
        "updated_at": "2024-12-10T11:00:00Z"
      },
      {
        "id": "01HX9R8C8V2NP3QWKJ5ART005",
        "title": "Payment Methods and Processing Guide",
        "slug": "payment-methods-processing-guide",
        "excerpt": "Comprehensive guide to managing payment methods, processing payments, handling failures, and optimizing your payment infrastructure.",
        "author_name": "System Administrator",
        "category": {
          "id": "01HX9R8C8V2NP3QWKJ5CAT004",
          "name": "Payment Methods",
          "slug": "payment-methods"
        },
        "status": "published",
        "is_public": true,
        "is_featured": false,
        "published_at": "2024-11-20T09:00:00Z",
        "reading_time": 18,
        "views_count": 980,
        "likes_count": 54,
        "comments_count": 8,
        "tags": ["payments", "stripe", "paypal", "gateway"],
        "created_at": "2024-11-20T09:00:00Z",
        "updated_at": "2024-12-12T15:00:00Z"
      },
      {
        "id": "01HX9R8C8V2NP3QWKJ5ART006",
        "title": "Troubleshooting Common Powernode Issues",
        "slug": "troubleshooting-common-powernode-issues",
        "excerpt": "Quick solutions to the most common issues in Powernode. Find answers to login problems, payment failures, API errors, and more.",
        "author_name": "System Administrator",
        "category": {
          "id": "01HX9R8C8V2NP3QWKJ5CAT006",
          "name": "Troubleshooting",
          "slug": "troubleshooting"
        },
        "status": "published",
        "is_public": true,
        "is_featured": false,
        "published_at": "2024-11-25T14:00:00Z",
        "reading_time": 10,
        "views_count": 2100,
        "likes_count": 89,
        "comments_count": 35,
        "tags": ["troubleshooting", "faq", "support"],
        "created_at": "2024-11-25T14:00:00Z",
        "updated_at": "2024-12-19T11:00:00Z"
      },
      {
        "id": "01HX9R8C8V2NP3QWKJ5ART007",
        "title": "Setting Up Webhook Integrations",
        "slug": "setting-up-webhook-integrations",
        "excerpt": "Learn how to configure and manage webhook integrations for real-time event notifications in Powernode.",
        "author_name": "Developer Team",
        "category": {
          "id": "01HX9R8C8V2NP3QWKJ5CAT005",
          "name": "API Documentation",
          "slug": "api-documentation"
        },
        "status": "published",
        "is_public": true,
        "is_featured": false,
        "published_at": "2024-12-01T10:00:00Z",
        "reading_time": 7,
        "views_count": 756,
        "likes_count": 42,
        "comments_count": 6,
        "tags": ["webhooks", "integration", "events"],
        "created_at": "2024-12-01T10:00:00Z",
        "updated_at": "2024-12-15T16:00:00Z"
      },
      {
        "id": "01HX9R8C8V2NP3QWKJ5ART008",
        "title": "Understanding Invoice Management",
        "slug": "understanding-invoice-management",
        "excerpt": "Complete guide to creating, managing, and automating invoices in Powernode's billing system.",
        "author_name": "Billing Team",
        "category": {
          "id": "01HX9R8C8V2NP3QWKJ5CAT003",
          "name": "Billing & Subscriptions",
          "slug": "billing-subscriptions"
        },
        "status": "draft",
        "is_public": false,
        "is_featured": false,
        "published_at": null,
        "reading_time": 9,
        "views_count": 0,
        "likes_count": 0,
        "comments_count": 0,
        "tags": ["invoices", "billing", "automation"],
        "created_at": "2024-12-10T14:00:00Z",
        "updated_at": "2024-12-18T10:00:00Z"
      }
    ],
    "pagination": {
      "current_page": 1,
      "total_pages": 3,
      "total_count": 24,
      "per_page": 10
    },
    "stats": {
      "total": 24,
      "published": 20,
      "draft": 3,
      "review": 1,
      "archived": 0
    }
  },
  "message": "Articles retrieved successfully"
}
